<?xml version="1.0" encoding="UTF-8"?>
<session version="1.0">
<refactoring comment="Delete resource &apos;HelloWorldCPP/main.c&apos;" deleteContents="false" description="Delete resource &apos;HelloWorldCPP/main.c&apos;" element1="/HelloWorldCPP/main.c" flags="7" id="org.eclipse.ltk.core.refactoring.delete.resources" resources="1" stamp="1676092871101"/>
</session>