lp,imie,Shynesh,Sukumaran,numer,kod,miejscowosc,telefon,email,data_ur
1,Jan,Shyma,Sukumaran,1a,11-234,Budry,123-123-456,jan@go.xxx,1980.05.13
2,Jerzy,Anisha,Vinod,13a/3,00-900,Lichowice,(55)333-44-55,jer@wu.to,1990.03.23
